Marker:,Maryjane Bertrand
Total mark:,7.22 (out of 10)

,,Note 1: You could only get marks for either 'Population' or 'Problem'. So it is normal that one of the two section will have 0 marks
,,"Note 2: If you have a mark in 'All PICO elements correct!' there will be no marks in any of the other PICO-related sections.
 This means that you have full marks for all PICO elements even though the individual section show 0 marks - ignore those entries"
Element,Mark,Comment
Report has Research Question?,0.9,
Type ('early'/'late') was specified?,0.35,Late research question is stated at the start of the template.
Context,,
Context labelled?,0.66,
Context correct?,0.67,
Context explained?,0.67,
Population,,
Population labelled?,0.0,The >population< description has not been identified clearly as such. 
Population explained?,0.0,The population has not been characterised in sufficient detail.  
Problem,,
Problem labelled?,0.0,The >problem< has not been labelled explicitely! You are only to provide either not both
Problem correct?,0.0,The problem has not been correctly described. 
Problem explained?,0.0,The problem has not been explained in sufficient detail. 
Intervention,,
Intervention labelled?,0.35,
Intervention correct?,0.48,
Intervention explained?,0.0,The description of the intervention is lacking detail. You have written a lot of things that are not very understandable
Comparison,,
Comparison labelled?,0.35,
Comparison correct?,0.48,
Comparison explained?,0.0,The >comparison< has not been elaborated on in sufficient detail. Too long sentences with no citations
Outcome,,
Outcome labelled?,0.35,
Outcome correct?,0.48,
Outcome explained?,0.48,
Spelling correct?,0.5,
Grammar correct?,0.0,There are grammatical errors in the report. Please use grammaly to check your you grammar
Is question Comp. Sci. question?,0.5,
All Pico elements correct!,0.0, 
General comments,,You have made so many claims with no referencing. Your write up is too long with less meaning
